%YAML 1.1
%TAG !u! tag:unity3d.com,2011:
--- !u!114 &11400000
MonoBehaviour:
  m_ObjectHideFlags: 0
  m_PrefabParentObject: {fileID: 0}
  m_PrefabInternal: {fileID: 0}
  m_GameObject: {fileID: 0}
  m_Enabled: 1
  m_EditorHideFlags: 0
  m_Script: {fileID: 11500000, guid: 845d47418d2df9d4ba1e39ce459bb74a, type: 3}
  m_Name: GameStateMachine
  m_EditorClassIdentifier: 
  InitialState: 0
  States: 000000000100000002000000
  fromList: 00000000010000000200000000000000
  toList: 01000000020000000000000002000000
